…
We will be constructing three/four 95% confidence intervals to estimate population parameters, for the % who believe that Earth is warming, accoridng to their party or ideology.
You can create the CIs using the formulas by hand, or use prop.test()– just rememeber to exclude the Dont know / refuse to answer!

global_warming <- global_warming_pew %>%
  filter(response != "Don't know / refuse to answer")
unique(global_warming$response)

## [1] "Earth is warming" "Not warming"

#as Don't know / refuse to answer response is filtered out, the response becomes binomial
global_warming

## # A tibble: 2,117 × 2
##    party_or_ideology       response        
##    <chr>                   <chr>           
##  1 Conservative Republican Earth is warming
##  2 Conservative Republican Earth is warming
##  3 Conservative Republican Earth is warming
##  4 Conservative Republican Earth is warming
##  5 Conservative Republican Earth is warming
##  6 Conservative Republican Earth is warming
##  7 Conservative Republican Earth is warming
##  8 Conservative Republican Earth is warming
##  9 Conservative Republican Earth is warming
## 10 Conservative Republican Earth is warming
## # … with 2,107 more rows
…
